1 10 20
100 200 125
201 210 89
900 1000 174
41622 770515 509
68264 320142 443
606811 865332 525
545613 703703 509
221058 713718 509
159228 948529 525
473587 623401 470
497846 964771 525
218202 493610 449
421900 894219 525
135408 384211 443
123757 246600 443
172144 378622 443
972029 980313 383
401297 690876 509
63580 782963 509
98783 188008 383
278701 438810 449
246847 367416 441
618805 826807 509
562764 877754 525
681933 994547 525
867350 918827 476
84500 730442 509
447426 587014 470
629733 787014 504
203672 882197 525
536593 577110 452
294402 894726 525
84104 789247 509
315558 856133 525
444800 586657 470
12378 945296 525
119868 501446 449
550767 660744 509
33036 592829 470
530176 715778 509
93184 377053 443
16186 977772 525
364003 601320 470
634476 767637 504
285176 703117 509
144366 578457 470
561588 593692 434
572466 782286 509
243756 671641 509
309044 758701 509
676693 790169 504
444271 531902 470
626218 882419 525
631184 883384 525
657963 857666 525
21566 136735 354
683486 839243 525
176745 255012 443
327507 431958 449
302699 472168 449
353762 571066 470
983749 995122 427
188826 817728 509
309114 907165 525
158942 761978 509
76452 234299 443
237850 886886 525
499343 843264 525
901402 992790 507
153162 965094 525
336030 608991 470
381733 735356 509
208484 510284 449
240674 382322 441
319610 597341 470
155862 592040 470
269674 880305 525
16012 860877 525
94522 908919 525
159841 208973 373
710345 946136 525
304294 400797 441
1112 824353 509
362478 425630 449
258006 606597 470
312207 602813 470
748250 945879 525
260074 828589 509
915484 984760 507
178570 821691 509
368898 619808 470
389102 650905 509
20018 299724 443
34112 738679 509
307898 846894 525
344909 392547 441
108696 912763 525
325476 396959 441
639639 822150 504
836439 898996 525
6404 327135 443
470501 497695 426
198928 762642 509
459449 509580 444
280173 315259 389
315486 817480 509
783250 907159 525
257186 962346 525
695259 760842 504
273032 751448 509
407223 417776 449
142030 393839 443
148388 519719 470
60890 480559 449
262798 968477 525
161302 967489 525
136554 895669 525
12018 48384 324
392363 410029 449
3690 592982 470
57712 399295 443
232680 507779 449
456617 908298 525
649637 792147 504
253270 366827 441
466324 864343 525
11418 855683 525
613904 943521 525
123474 622707 470
105807 189866 383
452383 637485 509
183230 921845 525
892687 909646 445
47038 526146 470
3640 67090 340
27924 541084 470
43182 827874 509
237008 499302 449
623797 706209 509
379496 550462 470
549924 986696 525
491278 792098 509
195261 363455 443
84190 469930 449
197633 216450 386
109936 688046 509
705000 801135 468
650169 684178 442
202711 377827 443
771219 897860 525
661600 958040 525
114974 408249 443
54386 565617 470
387408 948872 525
135050 342338 443
614350 685846 509
59132 409294 443
631095 924666 525
198840 828349 509
89242 603109 470
216180 618214 470
158314 250686 443
500602 910392 525
284678 756733 509
229102 990195 525
341800 835477 509
213802 971532 525
196864 629562 509
188092 223079 386
695290 823381 504
176602 496291 449
458529 587207 470
338834 629428 509
596575 629140 509
189982 326669 443
566799 711516 509
478565 839082 525
819121 978881 525
482448 602327 470
72548 752942 509
18176 781268 509
677676 684400 380
440845 645062 509
405910 929421 525
309774 832938 509
131268 803926 509
131028 672119 509
468586 966666 525
284442 803838 509
468970 628318 509
739604 896149 525
597209 680510 509
628099 816355 504
317480 771934 509
334219 456516 449
90957 161158 383
305264 446532 449
442482 998606 525
343739 447282 449
